719549 5374 509
216380 35664 386
703459 537722 509
246034 240872 337
208491 380423 443
797534 365799 509
275968 702931 509
920541 886276 476
667366 617659 509
874121 695345 525
727752 609321 509
240473 248670 368
225382 792332 509
689197 868607 525
551452 954482 525
504140 442989 444
160464 278448 443
647497 583551 509
937065 703009 525
114224 203335 383
26101 410507 449
217346 686301 509
560105 333621 470
403392 955710 525
233189 280820 407
591094 888083 525
924953 411635 525
755199 614490 509
241753 385754 441
453582 315262 449
207173 782355 509
435833 503388 444
701679 737913 504
470870 957376 525
242184 284567 407
390408 229611 443
352759 941939 525
19780 105915 351
747719 350777 509
92121 348602 443
855038 46289 525
365870 214361 443
762534 448369 509
545801 33331 470
575923 22794 470
408362 773364 509
917977 97816 525
898231 299048 525
134274 174771 383
68757 967830 525
319104 826217 509
269491 264990 345
342185 752936 509
598547 329752 470
47493 18976 324
915834 69349 525
818905 839575 525
44864 872978 525
761328 740771 424
915333 373273 525
672099 228951 509
752462 382580 509
601390 961538 525
691360 639397 442
351007 801029 509
123869 767875 509
741502 386798 509
161266 303136 443
553538 601518 434
691558 719603 504
162956 178534 352
711167 436712 509
267571 334381 407
461971 922809 525
80105 475006 449
594781 364138 470
547746 419943 470
773712 878330 525
261384 514902 470
820437 718858 468
707057 301720 509
590616 343342 470
551003 983948 525
669467 765210 504
527355 118972 470
183693 217381 386
179597 99942 383
505804 861839 525
113382 221412 386
211329 59531 383
753189 15820 509
74751 237072 443
109717 366757 443
540812 591274 452
425067 912653 525
644403 605107 509
511324 428796 444
530857 654300 509
206231 815431 509
281207 624282 470
910072 624343 525
517032 600957 452
643614 190456 509
498241 112707 449
970954 613965 525
507205 630971 509
337886 397163 441
833995 715356 468
879196 652119 525
27951 126310 354
696395 862589 525
670192 932688 525
7718 942231 525
668108 94490 509
407894 911512 525
516647 787884 509
806940 176880 509
952547 820848 525
784938 592052 509
736615 923627 525
103802 914339 525
11375 760608 509
589803 958869 525
952227 270451 525
67999 763858 509
509011 962472 525
572748 385845 470
417453 955064 525
480176 218259 449
745330 195504 509
177433 241387 443
512486 276353 470
494226 316582 449
854098 901757 445
296411 765196 509
477215 817652 509
291812 632131 509
22121 733924 509
531826 937466 525
554864 336305 470
929035 643154 525
407411 841720 525
873290 14754 525
401607 905456 525
337070 627708 509
859073 824216 525
939841 254492 525
639940 823627 504
140445 807046 509
21991 719867 509
823016 907683 525
354331 964408 525
230929 10010 443
381825 573042 470
681137 108928 509
800182 980313 525
942059 500256 525
714859 508841 509
94080 311551 443
897419 154817 525
828979 851380 525
968132 354880 525
666081 469845 509
259480 840409 525
4707 254335 443
129287 272036 443
106931 104528 354
568744 25489 470
599833 440407 470
80152 268932 443
317169 159884 443
595815 984062 525
848978 560166 525
691375 811048 504
173777 541904 470
698325 404079 509
286508 349235 441
35533 337299 443
105995 630936 509
515283 908693 525
163398 345252 443
4620 18719 279
688839 845582 525
227128 414065 449
837671 67021 509
515508 573053 452
173621 565780 470
449522 389215 449
525726 246314 470
184908 708324 509
686020 424666 509
778944 265707 509
961123 779229 525
595758 354415 470
326591 378138 441
947213 152044 525
618687 967971 525
62170 23373 340
303775 397744 441
347574 416392 449
589284 334461 470
504598 422421 444
626402 493191 509
649819 767199 504
498648 478287 426
749352 650378 504
832669 947551 525
980059 658008 525
627924 807859 504
285867 82649 443
122117 764797 509
947503 501681 525
100457 780399 509
980180 448593 525
660116 235533 509
