1 10 20
100 200 125
201 210 89
900 1000 174
758981 70796 509
373892 723155 509
307319 202784 443
481886 90059 449
503000 413665 444
869153 926313 476
193537 5820 383
707017 144434 509
750828 677146 504
29170 749504 509
215316 703208 509
314735 779123 509
135294 987461 525
131284 531632 470
280093 9633 443
655361 286607 509
680303 645696 442
68283 87501 351
815914 48891 509
793599 257309 509
805920 363503 509
466515 120641 449
721624 576109 509
898424 544475 525
450242 713111 509
226859 769745 509
403702 845739 525
939481 755607 525
734397 308084 509
323391 890110 525
154926 305155 443
8393 408012 443
615652 975072 525
150764 93418 375
660743 484257 509
848873 307095 525
890673 98102 525
879766 65803 525
508530 749168 509
629922 226303 509
316912 423952 449
47051 555853 470
326811 372591 441
761715 317108 509
631204 162061 509
364542 569468 470
657145 145501 509
247603 676676 509
318925 728801 509
353582 99980 443
348132 16084 443
850683 807606 525
119498 815751 509
907532 180017 525
430438 170710 449
430872 266839 449
639719 639788 279
676731 744739 504
822621 167425 509
513567 18923 470
769283 78510 509
795661 995336 525
445951 900251 525
569546 675546 509
41101 128078 354
864985 66575 525
578378 863497 525
773475 35030 509
635031 960300 525
107296 736177 509
597963 67656 470
871157 724871 525
807210 928352 525
481280 136544 449
881658 190303 525
534903 789323 509
626017 493053 470
222068 252257 443
509417 881618 525
962373 247463 525
98156 998203 525
542369 205375 470
36606 366799 443
828032 269465 509
701652 616810 509
396308 37937 443
580743 374848 470
51015 489567 449
906651 695714 525
263948 53994 443
965333 222932 525
863512 33427 525
718853 371796 509
755884 483936 509
257787 156248 443
207246 50730 383
296723 642763 509
834346 811526 450
860572 134612 525
207118 268447 443
604292 445526 470
221132 874126 525
442937 929707 525
186465 461518 449
96507 718322 509
48459 718861 509
398303 192459 443
495617 785218 509
759001 135260 509
467122 786549 509
321469 691482 509
906343 538528 525
276071 872659 525
801279 205271 509
691999 270576 509
360734 621396 470
576683 577810 390
421500 149280 449
318576 557789 470
737258 114325 509
945681 770147 525
875516 78775 525
878467 245033 525
491760 954251 525
679111 141012 509
83255 845052 525
317098 887990 525
809358 352865 509
867598 476828 525
445799 426819 400
938557 367934 525
938016 217333 525
738370 415734 509
156339 942449 525
877924 582600 525
508909 351067 449
972815 656902 525
998648 733476 525
405903 222695 443
450032 793297 509
478291 435027 444
613636 985488 525
51987 245228 443
250851 70622 443
931836 228228 525
708529 529897 509
120490 266800 443
737207 190506 509
71463 673368 509
338399 93818 443
18045 458774 449
92384 400404 443
121165 651304 509
305492 738353 509
953115 848307 507
895875 439327 525
234048 591024 470
315408 920744 525
770001 56876 509
71306 358807 443
466367 400634 449
791081 832004 468
218823 583492 470
706058 727298 411
714224 521028 509
866906 85743 525
611847 620162 447
804729 683152 504
337658 566015 470
332476 758272 509
287683 553 443
144389 697247 509
294514 944338 525
967727 275931 525
212465 856792 525
999915 124138 525
562335 99754 470
603590 584827 403
987693 284377 525
5238 343261 443
341902 289291 384
945190 554509 525
836529 323528 509
901072 733945 525
935898 998887 507
500568 57466 449
128655 391654 443
939241 375701 525
801060 993261 525
940191 490004 525
191550 543438 470
229522 456527 449
775282 666098 504
332053 25974 443
718121 23005 509
324111 805378 509
314205 984232 525
78995 717845 509
415925 16423 449
96184 726482 509
689333 45582 509
268857 680656 509
35668 388743 443
525116 151319 470
121229 74461 354
163552 235462 443
670379 750397 504
941109 380368 525
837227 799671 450
879410 950209 507
502394 400680 449
944877 906694 507
265656 326845 407
121075 168305 383
94762 773249 509
166630 56006 383
519810 999902 525
568468 615082 447
389467 966688 525
29083 286142 443
860053 792646 525
589536 769187 509
987952 179372 525
984259 864128 507
385659 588439 470
404806 559476 470
837451 788288 468
874011 570069 525
260125 39742 443
983320 951686 458
712367 285568 509
149782 941615 525
859895 249890 525
724735 176152 509
596491 89685 470
637663 464822 509
338988 136362 443
58808 378664 443
638384 453662 509
625320 980163 525
175900 591427 470
998378 530701 525
763708 955383 525
28999 470967 449
499813 91824 449
253514 665051 509
536744 504963 470
490604 611213 470
393176 365196 436
236723 552642 470
